(kicad_pcb (version 20211014) (generator pcbnew)

  (general
    (thickness 1.6)
  )

  (paper "A4")
  (layers
    (0 "F.Cu" signal)
    (31 "B.Cu" signal)
    (32 "B.Adhes" user "B.Adhesive")
    (33 "F.Adhes" user "F.Adhesive")
    (34 "B.Paste" user)
    (35 "F.Paste" user)
    (36 "B.SilkS" user "B.Silkscreen")
    (37 "F.SilkS" user "F.Silkscreen")
    (38 "B.Mask" user)
    (39 "F.Mask" user)
    (40 "Dwgs.User" user "User.Drawings")
    (41 "Cmts.User" user "User.Comments")
    (42 "Eco1.User" user "User.Eco1")
    (43 "Eco2.User" user "User.Eco2")
    (44 "Edge.Cuts" user)
    (45 "Margin" user)
    (46 "B.CrtYd" user "B.Courtyard")
    (47 "F.CrtYd" user "F.Courtyard")
    (48 "B.Fab" user)
    (49 "F.Fab" user)
    (50 "User.1" user)
    (51 "User.2" user)
    (52 "User.3" user)
    (53 "User.4" user)
    (54 "User.5" user)
    (55 "User.6" user)
    (56 "User.7" user)
    (57 "User.8" user)
    (58 "User.9" user)
  )

  (setup
    (stackup
      (layer "F.SilkS" (type "Top Silk Screen"))
      (layer "F.Paste" (type "Top Solder Paste"))
      (layer "F.Mask" (type "Top Solder Mask") (thickness 0.01))
      (layer "F.Cu" (type "copper") (thickness 0.035))
      (layer "dielectric 1" (type "core") (thickness 1.51) (material "FR4") (epsilon_r 4.5) (loss_tangent 0.02))
      (layer "B.Cu" (type "copper") (thickness 0.035))
      (layer "B.Mask" (type "Bottom Solder Mask") (thickness 0.01))
      (layer "B.Paste" (type "Bottom Solder Paste"))
      (layer "B.SilkS" (type "Bottom Silk Screen"))
      (copper_finish "None")
      (dielectric_constraints no)
    )
    (pad_to_mask_clearance 0)
    (pcbplotparams
      (layerselection 0x00010fc_ffffffff)
      (disableapertmacros false)
      (usegerberextensions false)
      (usegerberattributes true)
      (usegerberadvancedattributes true)
      (creategerberjobfile true)
      (svguseinch false)
      (svgprecision 6)
      (excludeedgelayer true)
      (plotframeref false)
      (viasonmask false)
      (mode 1)
      (useauxorigin false)
      (hpglpennumber 1)
      (hpglpenspeed 20)
      (hpglpendiameter 15.000000)
      (dxfpolygonmode true)
      (dxfimperialunits true)
      (dxfusepcbnewfont true)
      (psnegative false)
      (psa4output false)
      (plotreference true)
      (plotvalue true)
      (plotinvisibletext false)
      (sketchpadsonfab false)
      (subtractmaskfromsilk false)
      (outputformat 1)
      (mirror false)
      (drillshape 1)
      (scaleselection 1)
      (outputdirectory "")
    )
  )

  (net 0 "")
  (net 1 "Net-(J1-Pad1)")
  (net 2 "Net-(J1-Pad2)")
  (net 3 "AC")

  (footprint "Converter_ACDC:Converter_ACDC_MeanWell_IRM-02-xx_SMD" (layer "F.Cu")
    (tedit 5B57271E) (tstamp 0eca280c-3033-4dbd-9539-102f8221a052)
    (at 166.42 98.542)
    (descr "ACDC-Converter, 3W, Meanwell, IRM-02, SMD, https://www.meanwell.com/Upload/PDF/IRM-02/IRM-02-SPEC.PDF")
    (tags "ACDC-Converter 3W")
    (property "Sheetfile" "schuim.kicad_sch")
    (property "Sheetname" "")
    (path "/30f15357-ce1d-48b9-93dc-7d9b1b2aa048")
    (attr smd)
    (fp_text reference "PS1" (at -9.18 -17.8) (layer "F.SilkS")
      (effects (font (size 1 1) (thickness 0.15)))
      (tstamp 7e8f6554-ede7-4653-8336-886fd3150b47)
    )
    (fp_text value "IRM-02-12S" (at 0 17.9) (layer "F.Fab")
      (effects (font (size 1 1) (thickness 0.15)))
      (tstamp faff5837-56ab-4dc2-9d84-ea7b14918112)
    )
    (fp_text user "${REFERENCE}" (at 0 0) (layer "F.Fab")
      (effects (font (size 1 1) (thickness 0.15)))
      (tstamp af73ada0-110a-45fd-99fa-c6b50d2f91d9)
    )
    (fp_line (start 11.22 -16.97) (end 11.22 16.97) (layer "F.SilkS") (width 0.12) (tstamp 1df9d9ae-b9a1-4d95-a328-0fcd70680149))
    (fp_line (start 11.22 16.97) (end -11.22 16.97) (layer "F.SilkS") (width 0.12) (tstamp 7de87254-4caa-4605-b455-5302ebfaa62d))
    (fp_line (start -11.22 -16.97) (end 11.22 -16.97) (layer "F.SilkS") (width 0.12) (tstamp 83d02ec8-93ee-4239-a8c8-e1240591540e))
    (fp_line (start -11.22 16.97) (end -11.22 -16.97) (layer "F.SilkS") (width 0.12) (tstamp a4c015bc-9f2e-4303-9b8c-8cf29fe3a954))
    (fp_line (start -14.5 17.1) (end 14.5 17.1) (layer "F.CrtYd") (width 0.05) (tstamp 0b211f71-5969-4cd8-9aa2-3047a496509d))
    (fp_line (start -14.5 -17.1) (end -14.5 17.1) (layer "F.CrtYd") (width 0.05) (tstamp 8c697be3-de78-454b-b671-2a9ce0053bae))
    (fp_line (start 14.5 -17.1) (end -14.5 -17.1) (layer "F.CrtYd") (width 0.05) (tstamp afb3b15c-b442-4c1f-a92b-9e6f5e5a0eb9))
    (fp_line (start 14.5 -17.1) (end 14.5 17.1) (layer "F.CrtYd") (width 0.05) (tstamp b98840ae-8472-4401-b751-8c8465119f78))
    (fp_line (start -11.1 -15.85) (end -11.1 16.85) (layer "F.Fab") (width 0.1) (tstamp 073e1c39-69d7-40a6-b013-7e231bf17297))
    (fp_line (start -11.1 16.85) (end 11.1 16.85) (layer "F.Fab") (width 0.1) (tstamp 22309afe-2365-4c44-8f77-2176d422b407))
    (fp_line (start 11.1 16.85) (end 11.1 -16.85) (layer "F.Fab") (width 0.1) (tstamp 35d2faf1-ed3c-47d2-a16c-726bf6890365))
    (fp_line (start 11.1 -16.85) (end -10.1 -16.85) (layer "F.Fab") (width 0.1) (tstamp 394f626a-a4d3-431e-8264-088e87b6cae8))
    (fp_line (start -11.1 -15.85) (end -10.1 -16.85) (layer "F.Fab") (width 0.1) (tstamp fed5b693-0909-40e4-aa06-3110bb399660))
    (pad "1" smd rect (at -13.235 -13.97 270) (size 1.5 2.03) (layers "F.Cu" "F.Paste" "F.Mask")
      (net 3 "AC") (pinfunction "AC/L") (pintype "power_in") (tstamp b5353e33-09e6-4670-9bab-a012768682ab))
    (pad "3" smd rect (at -13.235 -8.89 270) (size 1.5 2.03) (layers "F.Cu" "F.Paste" "F.Mask") (tstamp 85497723-ecfb-4685-ac39-6c33c4bc9b61))
    (pad "5" smd rect (at -13.235 -3.81 270) (size 1.5 2.03) (layers "F.Cu" "F.Paste" "F.Mask") (tstamp 53fa34c2-48ef-4f79-ad48-1df5f093c035))
    (pad "9" smd rect (at -13.235 6.35 270) (size 1.5 2.03) (layers "F.Cu" "F.Paste" "F.Mask") (tstamp 7c2be699-7167-41e3-96ca-1f2d981c8510))
    (pad "10" smd rect (at -13.235 8.89 270) (size 1.5 2.03) (layers "F.Cu" "F.Paste" "F.Mask") (tstamp 91bfd2e3-5ceb-4b4a-86c2-045a52e5617a))
    (pad "11" smd rect (at -13.235 11.43 270) (size 1.5 2.03) (layers "F.Cu" "F.Paste" "F.Mask") (tstamp 5bb20e2f-82ee-4efd-a656-e2a5dac3bd3d))
    (pad "12" smd rect (at -13.235 13.97 270) (size 1.5 2.03) (layers "F.Cu" "F.Paste" "F.Mask")
      (net 1 "Net-(J1-Pad1)") (pinfunction "+Vo") (pintype "power_out") (tstamp 2bde0b39-f0cc-4574-b203-8f2de32fcd47))
    (pad "13" smd rect (at 13.235 13.97 270) (size 1.5 2.03) (layers "F.Cu" "F.Paste" "F.Mask")
      (net 2 "Net-(J1-Pad2)") (pinfunction "-Vo") (pintype "power_out") (tstamp 100d6c93-bcff-4c19-9b88-cab529408af0))
    (pad "14" smd rect (at 13.235 11.43 270) (size 1.5 2.03) (layers "F.Cu" "F.Paste" "F.Mask") (tstamp 30d0b67f-13cc-44d7-ae75-f93e63cb6d59))
    (pad "15" smd rect (at 13.235 8.89 270) (size 1.5 2.03) (layers "F.Cu" "F.Paste" "F.Mask") (tstamp ed2465a2-afeb-41e3-a40e-97d6d55852da))
    (pad "16" smd rect (at 13.235 6.35 270) (size 1.5 2.03) (layers "F.Cu" "F.Paste" "F.Mask") (tstamp 794c9a77-0c29-44dc-8d34-2e80c0e666e3))
    (pad "20" smd rect (at 13.235 -3.81 270) (size 1.5 2.03) (layers "F.Cu" "F.Paste" "F.Mask") (tstamp b79470f0-cd9d-4d32-ae7e-f35ac06818b2))
    (pad "22" smd rect (at 13.235 -8.89 270) (size 1.5 2.03) (layers "F.Cu" "F.Paste" "F.Mask") (tstamp f826dcb5-b6cd-4d54-bfa1-21d364ecbf77))
    (pad "24" smd rect (at 13.235 -13.97 270) (size 1.5 2.03) (layers "F.Cu" "F.Paste" "F.Mask")
      (net 3 "AC") (pinfunction "AC/N") (pintype "power_in") (tstamp 1c5d515f-544e-49d6-8695-1bb07349f7a6))
    (model "${KICAD6_3DMODEL_DIR}/Converter_ACDC.3dshapes/Converter_ACDC_MeanWell_IRM-02-xx_SMD.wrl"
      (offset (xyz 0 0 0))
      (scale (xyz 1 1 1))
      (rotate (xyz 0 0 0))
    )
  )

  (footprint "Connector_Phoenix_GMSTB:PhoenixContact_GMSTBA_2,5_2-G-7,62_1x02_P7.62mm_Horizontal" (layer "F.Cu")
    (tedit 5B785048) (tstamp 711cd627-aa26-4427-a43d-ebf7cf98441c)
    (at 100.0795 84.8535 90)
    (descr "Generic Phoenix Contact connector footprint for: GMSTBA_2,5/2-G-7,62; number of pins: 02; pin pitch: 7.62mm; Angled || order number: 1766233 12A 630V")
    (tags "phoenix_contact connector GMSTBA_01x02_G_7.62mm")
    (property "Sheetfile" "schuim.kicad_sch")
    (property "Sheetname" "")
    (path "/1f5344ec-941e-49c9-987d-084712d560f3")
    (attr through_hole)
    (fp_text reference "J2" (at 3.81 -3.2 90) (layer "F.SilkS")
      (effects (font (size 1 1) (thickness 0.15)))
      (tstamp 8e0cd321-1997-4a3f-9638-5a55cef9d323)
    )
    (fp_text value "Conn_01x02_Male" (at 3.81 11.2 90) (layer "F.Fab")
      (effects (font (size 1 1) (thickness 0.15)))
      (tstamp d015d07c-19c1-491c-9acd-b074c4ca1dd3)
    )
    (fp_text user "${REFERENCE}" (at 3.81 -1.3 90) (layer "F.Fab")
      (effects (font (size 1 1) (thickness 0.15)))
      (tstamp 89b0ecf1-977a-441a-a786-b6dbb6a07a81)
    )
    (fp_line (start -1 10.11) (end 1 10.11) (layer "F.SilkS") (width 0.12) (tstamp 02630088-e26b-4c44-9d37-f1569cbd4a1a))
    (fp_line (start -0.75 8.61) (end -1 10.11) (layer "F.SilkS") (width 0.12) (tstamp 21445263-3b75-4e3b-9a86-bbefe3fdadc1))
    (fp_line (start 1 10.11) (end 0.75 8.61) (layer "F.SilkS") (width 0.12) (tstamp 26c2cb96-62bc-420e-ac46-e237cecb1de0))
    (fp_line (start 11.54 -2.11) (end -3.92 -2.11) (layer "F.SilkS") (width 0.12) (tstamp 36b07b43-ea41-48aa-8b4d-ce9556fe4f1f))
    (fp_line (start 6.62 10.11) (end 8.62 10.11) (layer "F.SilkS") (width 0.12) (tstamp 424adcd5-0d84-4a37-9548-1c98f4ca4f84))
    (fp_line (start -3.92 -2.11) (end -3.92 10.11) (layer "F.SilkS") (width 0.12) (tstamp 5a0654cc-0ad0-422f-99ec-21b37da32d3d))
    (fp_line (start 0.3 -2.91) (end 0 -2.31) (layer "F.SilkS") (width 0.12) (tstamp 77732e46-1233-4855-b811-1b2da88563f3))
    (fp_line (start -0.3 -2.91) (end 0.3 -2.91) (layer "F.SilkS") (width 0.12) (tstamp 8983296a-5fc0-4ecb-9ec5-15e88c727bbc))
    (fp_line (start 0 -2.31) (end -0.3 -2.91) (layer "F.SilkS") (width 0.12) (tstamp 9460fd48-6a8d-4279-8194-15fb4eefd0c1))
    (fp_line (start -3.92 10.11) (end 11.54 10.11) (layer "F.SilkS") (width 0.12) (tstamp 953fd79a-a6a2-4514-9852-b851b99c4c61))
    (fp_line (start 11.54 6.81) (end 11.54 8.61) (layer "F.SilkS") (width 0.12) (tstamp 963c6282-fa27-4946-9c5d-e41b0ae208af))
    (fp_line (start -3.92 6.81) (end 11.54 6.81) (layer "F.SilkS") (width 0.12) (tstamp b9377ffc-6548-4e91-99be-cf9efcc29330))
    (fp_line (start 11.54 10.11) (end 11.54 -2.11) (layer "F.SilkS") (width 0.12) (tstamp bd4189ee-81e7-4134-9e19-ac997768be0e))
    (fp_line (start -3.92 8.61) (end -3.92 6.81) (layer "F.SilkS") (width 0.12) (tstamp cd602314-2d8e-4fe1-adf5-5b44a0057038))
    (fp_line (start 8.62 10.11) (end 8.37 8.61) (layer "F.SilkS") (width 0.12) (tstamp d761a9cf-68fc-4f20-818b-9ba39fcdd341))
    (fp_line (start 6.87 8.61) (end 6.62 10.11) (layer "F.SilkS") (width 0.12) (tstamp e47533b3-9065-4de9-95dc-e815367bbf1f))
    (fp_line (start 11.54 8.61) (end -3.92 8.61) (layer "F.SilkS") (width 0.12) (tstamp ee7df81e-2e96-494b-bd25-f6d13a8052bd))
    (fp_line (start 0.75 8.61) (end -0.75 8.61) (layer "F.SilkS") (width 0.12) (tstamp f4bc9661-9575-4bb6-af99-c45badab879d))
    (fp_line (start 8.37 8.61) (end 6.87 8.61) (layer "F.SilkS") (width 0.12) (tstamp faa91e0c-d4cf-4744-be26-c950f2c0d03c))
    (fp_line (start 11.93 -2.5) (end -4.31 -2.5) (layer "F.CrtYd") (width 0.05) (tstamp 49a677ad-770a-429f-aa03-9ee12dd2d5c1))
    (fp_line (start 11.93 10.5) (end 11.93 -2.5) (layer "F.CrtYd") (width 0.05) (tstamp 73156b16-1ffb-445c-ab5f-3d2e615eb9e9))
    (fp_line (start -4.31 -2.5) (end -4.31 10.5) (layer "F.CrtYd") (width 0.05) (tstamp 75dfc86c-6258-4d8c-921c-0a9eda85be63))
    (fp_line (start -4.31 10.5) (end 11.93 10.5) (layer "F.CrtYd") (width 0.05) (tstamp b3f723d1-86fe-45cc-88a9-603a38f64d53))
    (fp_line (start -3.81 -2) (end -3.81 10) (layer "F.Fab") (width 0.1) (tstamp 0757f094-8f9d-4d06-b1e4-dd01178287b8))
    (fp_line (start 0.95 -2) (end 0 -0.5) (layer "F.Fab") (width 0.1) (tstamp 198530ab-d29d-4843-88b8-f86a433c7905))
    (fp_line (start 11.43 -2) (end -3.81 -2) (layer "F.Fab") (width 0.1) (tstamp 2d36d69a-b023-4aa5-9527-bf2938b0878a))
    (fp_line (start 11.43 10) (end 11.43 -2) (layer "F.Fab") (width 0.1) (tstamp 41adcd32-b5d8-4cc3-8bcd-92c815f09bc9))
    (fp_line (start -3.81 10) (end 11.43 10) (layer "F.Fab") (width 0.1) (tstamp 4ebcba6e-e859-40b6-a8de-fd4cbc732021))
    (fp_line (start 0 -0.5) (end -0.95 -2) (layer "F.Fab") (width 0.1) (tstamp fe0d0e0b-8f2e-42d2-a491-f7481438a756))
    (pad "1" thru_hole roundrect (at 0 0 90) (size 2.1 3.6) (drill 1.4) (layers *.Cu *.Mask) (roundrect_rratio 0.119048)
      (net 3 "AC") (pinfunction "Pin_1") (pintype "passive") (tstamp f59d7187-f728-4e14-812b-55655df00b26))
    (pad "2" thru_hole oval (at 7.62 0 90) (size 2.1 3.6) (drill 1.4) (layers *.Cu *.Mask)
      (net 3 "AC") (pinfunction "Pin_2") (pintype "passive") (tstamp eda1ea1f-7ddf-4f5c-a57a-9eee2603b6f2))
    (model "${KICAD6_3DMODEL_DIR}/Connector_Phoenix_GMSTB.3dshapes/PhoenixContact_GMSTBA_2,5_2-G-7,62_1x02_P7.62mm_Horizontal.wrl"
      (offset (xyz 0 0 0))
      (scale (xyz 1 1 1))
      (rotate (xyz 0 0 0))
    )
  )

  (footprint "Connector_PinHeader_2.54mm:PinHeader_1x02_P2.54mm_Vertical" (layer "F.Cu")
    (tedit 59FED5CC) (tstamp 92a0b1d0-c07d-404b-9fbb-f8648e9c6582)
    (at 196.8 120.603 180)
    (descr "Through hole straight pin header, 1x02, 2.54mm pitch, single row")
    (tags "Through hole pin header THT 1x02 2.54mm single row")
    (property "Sheetfile" "schuim.kicad_sch")
    (property "Sheetname" "")
    (path "/04ecab63-3ba3-4607-adfb-660554b07e19")
    (attr through_hole)
    (fp_text reference "J1" (at 0 -2.33 180) (layer "F.SilkS")
      (effects (font (size 1 1) (thickness 0.15)))
      (tstamp d300db72-0aab-4b42-b7a7-c0f30136b687)
    )
    (fp_text value "Conn_01x02_Male" (at 0 4.87 180) (layer "F.Fab")
      (effects (font (size 1 1) (thickness 0.15)))
      (tstamp bf3c795d-eac0-4e3c-900f-cc28d09e593b)
    )
    (fp_text user "${REFERENCE}" (at 0 1.27 270) (layer "F.Fab")
      (effects (font (size 1 1) (thickness 0.15)))
      (tstamp 0a431d49-d4be-43b9-9827-5c32e0fccc2f)
    )
    (fp_line (start -1.33 0) (end -1.33 -1.33) (layer "F.SilkS") (width 0.12) (tstamp 167dcfdc-a8ff-42c3-a3ed-742d2750152c))
    (fp_line (start -1.33 1.27) (end 1.33 1.27) (layer "F.SilkS") (width 0.12) (tstamp 560d69b5-6070-4228-aeb3-ba0f19d871d7))
    (fp_line (start -1.33 1.27) (end -1.33 3.87) (layer "F.SilkS") (width 0.12) (tstamp 6af2e5ab-6edf-4222-b49a-00a41815f89e))
    (fp_line (start -1.33 3.87) (end 1.33 3.87) (layer "F.SilkS") (width 0.12) (tstamp b6761f30-2937-464c-82b6-da69860c05dd))
    (fp_line (start 1.33 1.27) (end 1.33 3.87) (layer "F.SilkS") (width 0.12) (tstamp b9236aa7-d8b9-46bf-8e40-6ca668fc5918))
    (fp_line (start -1.33 -1.33) (end 0 -1.33) (layer "F.SilkS") (width 0.12) (tstamp fe527140-9a01-4e0d-8346-933057514257))
    (fp_line (start -1.8 -1.8) (end -1.8 4.35) (layer "F.CrtYd") (width 0.05) (tstamp 4ef66788-ecc0-416b-a5ba-eafb5be3ae01))
    (fp_line (start -1.8 4.35) (end 1.8 4.35) (layer "F.CrtYd") (width 0.05) (tstamp c11824f6-6042-481f-b4a3-c865bf9e2f03))
    (fp_line (start 1.8 4.35) (end 1.8 -1.8) (layer "F.CrtYd") (width 0.05) (tstamp de47ec3c-8975-4b57-825c-6de57c278ba1))
    (fp_line (start 1.8 -1.8) (end -1.8 -1.8) (layer "F.CrtYd") (width 0.05) (tstamp eb2dacd4-dd5d-4afd-a839-73d56fc7ef5e))
    (fp_line (start 1.27 3.81) (end -1.27 3.81) (layer "F.Fab") (width 0.1) (tstamp 131aabbd-36f5-4ebd-9507-da007a5260a0))
    (fp_line (start 1.27 -1.27) (end 1.27 3.81) (layer "F.Fab") (width 0.1) (tstamp 523fc587-b73d-4621-a666-c6ebd8a20df4))
    (fp_line (start -1.27 -0.635) (end -0.635 -1.27) (layer "F.Fab") (width 0.1) (tstamp 93adc59d-6d05-4c59-9fc0-29f7483e8f7d))
    (fp_line (start -1.27 3.81) (end -1.27 -0.635) (layer "F.Fab") (width 0.1) (tstamp bc9a111d-c2e6-4559-a659-6b5da4711a40))
    (fp_line (start -0.635 -1.27) (end 1.27 -1.27) (layer "F.Fab") (width 0.1) (tstamp dc4dbdc1-7913-476b-b7e5-72e725db7535))
    (pad "1" thru_hole rect (at 0 0 180) (size 1.7 1.7) (drill 1) (layers *.Cu *.Mask)
      (net 1 "Net-(J1-Pad1)") (pinfunction "Pin_1") (pintype "passive") (tstamp 8274ff08-b76f-456e-b5dd-6d8b7cb15d05))
    (pad "2" thru_hole oval (at 0 2.54 180) (size 1.7 1.7) (drill 1) (layers *.Cu *.Mask)
      (net 2 "Net-(J1-Pad2)") (pinfunction "Pin_2") (pintype "passive") (tstamp b9149f5b-1b11-4c2f-ba11-66bde1a78bc7))
    (model "${KICAD6_3DMODEL_DIR}/Connector_PinHeader_2.54mm.3dshapes/PinHeader_1x02_P2.54mm_Vertical.wrl"
      (offset (xyz 0 0 0))
      (scale (xyz 1 1 1))
      (rotate (xyz 0 0 0))
    )
  )

  (gr_rect (start 81.648 35.649) (end 247.09 158.266) (layer "Edge.Cuts") (width 0.1) (fill none) (tstamp 0baae390-61e4-4e74-834e-667d692b63bb))

  (segment (start 161.276 120.603) (end 153.185 112.512) (width 0.25) (layer "F.Cu") (net 1) (tstamp 3684f111-7f13-43b1-a580-b1c81be9677d))
  (segment (start 196.8 120.603) (end 161.276 120.603) (width 0.25) (layer "F.Cu") (net 1) (tstamp a9497683-8183-4f6c-944e-a9bfcad7ba34))
  (segment (start 196.8 118.063) (end 185.206 118.063) (width 0.25) (layer "F.Cu") (net 2) (tstamp 6073c618-4235-4948-9077-0513a04237af))
  (segment (start 185.206 118.063) (end 179.655 112.512) (width 0.25) (layer "F.Cu") (net 2) (tstamp a9e175da-a7e2-4650-8f7b-02b8423cf83e))
  (segment (start 172.3165 77.2335) (end 179.655 84.572) (width 4) (layer "F.Cu") (net 3) (tstamp 01f4ae51-3a6c-4dde-aaa2-c501fb320625))
  (segment (start 100.361 84.572) (end 153.185 84.572) (width 4) (layer "F.Cu") (net 3) (tstamp 6e6a09b6-49d9-4000-b025-ad8c4dd265d8))
  (segment (start 100.0795 77.2335) (end 172.3165 77.2335) (width 4) (layer "F.Cu") (net 3) (tstamp 6f599679-1b24-47c5-b833-a1624071411f))
  (segment (start 100.0795 84.8535) (end 100.361 84.572) (width 4) (layer "F.Cu") (net 3) (tstamp 7066ead0-7323-44ab-a734-c74c8f56e917))

)
