
(footprint MIC_CMEJ-0627-42-P (layer F.Cu) (tedit 667CAFD9)
  (descr "")
  (fp_text reference REF** (at -0.325 -4.135 0) (layer F.SilkS)
    (effects (font (size 1.0 1.0) (thickness 0.15)))
  )
  (fp_text value MIC_CMEJ-0627-42-P (at 7.93 4.365 0) (layer F.Fab)
    (effects (font (size 1.0 1.0) (thickness 0.15)))
  )
  (pad P thru_hole circle (at -0.95 1.0) (size 1.0 1.0) (drill 0.6) (layers *.Cu *.Mask) (solder_mask_margin 0.102))
  (pad N thru_hole circle (at 0.95 1.0) (size 1.0 1.0) (drill 0.6) (layers *.Cu *.Mask) (solder_mask_margin 0.102))
  (fp_circle (center 0.0 0.0) (end 3.0 0.0) (layer F.SilkS) (width 0.127))
  (fp_circle (center 0.0 0.0) (end 3.0 0.0) (layer F.Fab) (width 0.127))
  (fp_circle (center 0.0 0.0) (end 3.25 0.0) (layer F.CrtYd) (width 0.05))
  (fp_text user "+" (at -4.5 1.5) (layer F.Fab)
    (effects (font (size 1.0 1.0) (thickness 0.15)))
  )
  (fp_text user "-" (at 3.5 1.5) (layer F.Fab)
    (effects (font (size 1.0 1.0) (thickness 0.15)))
  )
  (fp_text user "-" (at 3.5 1.5) (layer F.SilkS)
    (effects (font (size 1.0 1.0) (thickness 0.15)))
  )
  (fp_text user "+" (at -4.5 1.5) (layer F.SilkS)
    (effects (font (size 1.0 1.0) (thickness 0.15)))
  )
)