(footprint "JST_EH_B3B-EH-A_1x03_P2.50mm_UPDI" (version 20211014) (generator pcbnew)
  (layer "F.Cu")
  (tedit 5C28142C)
  (descr "JST EH series connector, B3B-EH-A (http://www.jst-mfg.com/product/pdf/eng/eEH.pdf), generated with kicad-footprint-generator")
  (tags "connector JST EH vertical")
  (attr through_hole)
  (fp_text reference "REF**" (at 2.5 -2.8) (layer "F.SilkS")
    (effects (font (size 1 1) (thickness 0.15)))
    (tstamp 78349cbc-4f8f-49fd-8e18-b283c191aa7a)
  )
  (fp_text value "JST_EH_B3B-EH-A_1x03_P2.50mm_UPDI" (at 2.5 3.4) (layer "F.Fab")
    (effects (font (size 1 1) (thickness 0.15)))
    (tstamp d31fe354-76b4-4a68-9f6b-1b740ad09aca)
  )
  (fp_text user "UPDI" (at 5 3.67 unlocked) (layer "F.SilkS")
    (effects (font (size 0.7 0.7) (thickness 0.15)))
    (tstamp 4dd1d81a-9480-4f31-86eb-34cb9a49c911)
  )
  (fp_text user "VCC" (at 2.5 3.67 unlocked) (layer "F.SilkS")
    (effects (font (size 0.7 0.7) (thickness 0.15)))
    (tstamp 9ce20e79-0281-4024-94c7-1c59a5f2721e)
  )
  (fp_text user "GND" (at 0 3.67 unlocked) (layer "F.SilkS")
    (effects (font (size 0.7 0.7) (thickness 0.15)))
    (tstamp dd3abce8-6c8d-4b24-9ce2-9020d4aaf185)
  )
  (fp_text user "${REFERENCE}" (at 2.5 1.5) (layer "F.Fab")
    (effects (font (size 1 1) (thickness 0.15)))
    (tstamp cbe813ae-005d-4d54-9899-14a22628177a)
  )
  (fp_line (start -2.61 2.31) (end 7.61 2.31) (layer "F.SilkS") (width 0.12) (tstamp 12c0fdd1-1a52-4228-80aa-69cc5c6e6b63))
  (fp_line (start 7.11 0) (end 7.61 0) (layer "F.SilkS") (width 0.12) (tstamp 1b4e14ec-fe12-484d-a7aa-ea7ab4669cc8))
  (fp_line (start 6.61 0.81) (end 6.61 2.31) (layer "F.SilkS") (width 0.12) (tstamp 3509486a-1a88-4b58-a8ad-0fd49d833512))
  (fp_line (start 7.11 -1.21) (end 7.11 0) (layer "F.SilkS") (width 0.12) (tstamp 4230a229-c3e8-4b05-8967-15da2ca7539f))
  (fp_line (start -2.91 0.11) (end -2.91 2.61) (layer "F.SilkS") (width 0.12) (tstamp 61549a85-5ef6-47d5-b9a2-89cc557cf843))
  (fp_line (start 7.61 0.81) (end 6.61 0.81) (layer "F.SilkS") (width 0.12) (tstamp 67a44ede-5baf-4781-8f96-091fdeca07ab))
  (fp_line (start -2.11 0) (end -2.11 -1.21) (layer "F.SilkS") (width 0.12) (tstamp 6ec90fbd-4a6e-4cc7-a59d-ddff66922cdf))
  (fp_line (start -2.91 2.61) (end -0.41 2.61) (layer "F.SilkS") (width 0.12) (tstamp 73cef85b-3bc7-49ab-b5ac-0492024b8b20))
  (fp_line (start 7.61 -1.71) (end -2.61 -1.71) (layer "F.SilkS") (width 0.12) (tstamp 8f8202c4-7a80-41e5-9505-59dcec1aee45))
  (fp_line (start -2.61 0.81) (end -1.61 0.81) (layer "F.SilkS") (width 0.12) (tstamp 97163173-2992-4c66-8edd-8b890e9b546e))
  (fp_line (start -1.61 0.81) (end -1.61 2.31) (layer "F.SilkS") (width 0.12) (tstamp bc9bb2e0-31c3-435d-a62b-d74bbc89b8a4))
  (fp_line (start -2.61 -1.71) (end -2.61 2.31) (layer "F.SilkS") (width 0.12) (tstamp c6abf933-9bf1-428d-941f-3d4d08cdb2ec))
  (fp_line (start -2.61 0) (end -2.11 0) (layer "F.SilkS") (width 0.12) (tstamp c9732aa0-eee9-496d-b00d-7db79c07c1ca))
  (fp_line (start 7.61 2.31) (end 7.61 -1.71) (layer "F.SilkS") (width 0.12) (tstamp d96efc83-4f30-4551-bd97-fabef102282b))
  (fp_line (start -2.11 -1.21) (end 7.11 -1.21) (layer "F.SilkS") (width 0.12) (tstamp e8d05340-3ed6-4aa9-b88b-0f366b0e48b1))
  (fp_line (start 8 -2.1) (end -3 -2.1) (layer "F.CrtYd") (width 0.05) (tstamp 0a396f17-467a-4004-83a6-c28cd8e1980a))
  (fp_line (start 8 2.7) (end 8 -2.1) (layer "F.CrtYd") (width 0.05) (tstamp 21b4726d-3c04-47f9-8acb-fa0183b371d4))
  (fp_line (start -3 -2.1) (end -3 2.7) (layer "F.CrtYd") (width 0.05) (tstamp 4fdb508c-2150-4b10-b5cf-ae5826aab484))
  (fp_line (start -3 2.7) (end 8 2.7) (layer "F.CrtYd") (width 0.05) (tstamp 61dbc23e-0377-4054-9001-c4b586fef7ff))
  (fp_line (start -2.91 0.11) (end -2.91 2.61) (layer "F.Fab") (width 0.1) (tstamp 4dd6a905-4653-4b1e-9015-ccd0e051363e))
  (fp_line (start -2.5 2.2) (end 7.5 2.2) (layer "F.Fab") (width 0.1) (tstamp 6408e942-ac46-4bbd-b9b3-a3d7e60ae43a))
  (fp_line (start 7.5 2.2) (end 7.5 -1.6) (layer "F.Fab") (width 0.1) (tstamp 8905d46e-4111-4745-b2c6-a81204d67f8c))
  (fp_line (start -2.5 -1.6) (end -2.5 2.2) (layer "F.Fab") (width 0.1) (tstamp b1914040-77f3-4431-b880-ded4054833c7))
  (fp_line (start 7.5 -1.6) (end -2.5 -1.6) (layer "F.Fab") (width 0.1) (tstamp b5a676c2-e64f-4325-a654-0bafb38e341e))
  (fp_line (start -2.91 2.61) (end -0.41 2.61) (layer "F.Fab") (width 0.1) (tstamp ef8c4d90-e3a1-43a4-86f7-131e457e0502))
  (pad "1" thru_hole roundrect (at 0 0) (size 1.7 1.95) (drill 0.95) (layers *.Cu *.Mask) (roundrect_rratio 0.147059) (tstamp b7cd4541-e18c-4be4-be48-ef482ce420d4))
  (pad "2" thru_hole oval (at 2.5 0) (size 1.7 1.95) (drill 0.95) (layers *.Cu *.Mask) (tstamp 296edf15-3a4c-449e-a96e-e4f64abc5bff))
  (pad "3" thru_hole oval (at 5 0) (size 1.7 1.95) (drill 0.95) (layers *.Cu *.Mask) (tstamp 42be5d77-89e5-4687-83c5-e23f531ba012))
  (model "${KICAD6_3DMODEL_DIR}/Connector_JST.3dshapes/JST_EH_B3B-EH-A_1x03_P2.50mm_Vertical.wrl"
    (offset (xyz 0 0 0))
    (scale (xyz 1 1 1))
    (rotate (xyz 0 0 0))
  )
)
