(footprint "SPKR_CMS-151135-18S-X8"
	(version 20240108)
	(generator "pcbnew")
	(generator_version "8.0")
	(layer "F.Cu")
	(property "Reference" "REF**"
		(at -2.975 -9.385 0)
		(layer "F.SilkS")
		(uuid "651f5a54-e900-4f57-ada6-0e74e6fe7ba8")
		(effects
			(font
				(size 1 1)
				(thickness 0.15)
			)
		)
	)
	(property "Value" "SPKR_CMS-151135-18S-X8"
		(at 7.82 9.585 0)
		(layer "F.Fab")
		(uuid "6b57d45f-9b5f-4006-ae79-71d0bbc2b91c")
		(effects
			(font
				(size 1 1)
				(thickness 0.15)
			)
		)
	)
	(property "Footprint" ""
		(at 0 0 0)
		(layer "F.Fab")
		(hide yes)
		(uuid "a19d1bd0-7d7d-42f1-9169-19c8f8b3661f")
		(effects
			(font
				(size 1.27 1.27)
				(thickness 0.15)
			)
		)
	)
	(property "Datasheet" ""
		(at 0 0 0)
		(layer "F.Fab")
		(hide yes)
		(uuid "8920e07c-9f64-4e71-babf-72f076bd2346")
		(effects
			(font
				(size 1.27 1.27)
				(thickness 0.15)
			)
		)
	)
	(property "Description" ""
		(at 0 0 0)
		(layer "F.Fab")
		(hide yes)
		(uuid "950fcbaa-cf85-4a20-b89e-f7a37f42cbeb")
		(effects
			(font
				(size 1.27 1.27)
				(thickness 0.15)
			)
		)
	)
	(attr smd)
	(fp_poly
		(pts
			(xy -5.9 5.3) (xy -5.9 7.7) (xy -3.9 7.7) (xy -3.9 6.3) (xy -4.9 5.3)
		)
		(stroke
			(width 0.01)
			(type solid)
		)
		(fill solid)
		(layer "F.Paste")
		(uuid "2657c929-9d1b-4276-86fb-e003030c074a")
	)
	(fp_poly
		(pts
			(xy 3.9 7.68) (xy 3.9 5.28) (xy 5.9 5.28) (xy 5.9 6.68) (xy 4.9 7.68)
		)
		(stroke
			(width 0.01)
			(type solid)
		)
		(fill solid)
		(layer "F.Paste")
		(uuid "1b257eb6-cf79-441c-b6ae-05a33e3528c6")
	)
	(fp_line
		(start -6.75 6.5)
		(end -7.75 6.5)
		(stroke
			(width 0.127)
			(type solid)
		)
		(layer "F.SilkS")
		(uuid "4a3d7867-ccf6-4794-8686-3cf9b57a324e")
	)
	(fp_line
		(start -5.5 -7.5)
		(end -5.5 4.98)
		(stroke
			(width 0.127)
			(type solid)
		)
		(layer "F.SilkS")
		(uuid "335d219f-9e4e-40af-a3e2-d4e9394f1a47")
	)
	(fp_line
		(start -3.58 7.5)
		(end 3.58 7.5)
		(stroke
			(width 0.127)
			(type solid)
		)
		(layer "F.SilkS")
		(uuid "8752c996-e2c0-49ab-a5a2-58580cb0ac76")
	)
	(fp_line
		(start 5.5 -7.5)
		(end -5.5 -7.5)
		(stroke
			(width 0.127)
			(type solid)
		)
		(layer "F.SilkS")
		(uuid "3cb90503-003c-4a3c-b60a-046b94953734")
	)
	(fp_line
		(start 5.5 4.98)
		(end 5.5 -7.5)
		(stroke
			(width 0.127)
			(type solid)
		)
		(layer "F.SilkS")
		(uuid "2ed473ca-0ae0-4e0f-aa68-4dbf3a8b1771")
	)
	(fp_line
		(start 6.5 6.5)
		(end 7.5 6.5)
		(stroke
			(width 0.127)
			(type solid)
		)
		(layer "F.SilkS")
		(uuid "e3eac02d-6ca6-4929-a962-4745573ece1e")
	)
	(fp_line
		(start 7 6)
		(end 7 7)
		(stroke
			(width 0.127)
			(type solid)
		)
		(layer "F.SilkS")
		(uuid "13fe824d-680c-4362-953e-366472b71202")
	)
	(fp_poly
		(pts
			(xy -6 5.2) (xy -6 7.8) (xy -3.8 7.8) (xy -3.8 6.25) (xy -4.85 5.2)
		)
		(stroke
			(width 0.01)
			(type solid)
		)
		(fill solid)
		(layer "F.Mask")
		(uuid "ca74a8dd-44a5-427d-872c-34e730115794")
	)
	(fp_poly
		(pts
			(xy 3.78 7.81) (xy 3.78 5.21) (xy 5.98 5.21) (xy 5.98 6.76) (xy 4.93 7.81)
		)
		(stroke
			(width 0.01)
			(type solid)
		)
		(fill solid)
		(layer "F.Mask")
		(uuid "02b90feb-ccc3-4d80-ad45-126672ff4d1b")
	)
	(fp_line
		(start -6.15 -7.75)
		(end -6.15 7.95)
		(stroke
			(width 0.05)
			(type solid)
		)
		(layer "F.CrtYd")
		(uuid "b508ae4b-2395-4968-b248-15ca1af9a2f6")
	)
	(fp_line
		(start -6.15 7.95)
		(end 6.15 7.95)
		(stroke
			(width 0.05)
			(type solid)
		)
		(layer "F.CrtYd")
		(uuid "8112a0dd-43ff-425f-b790-8422cc22b5a9")
	)
	(fp_line
		(start 6.15 -7.75)
		(end -6.15 -7.75)
		(stroke
			(width 0.05)
			(type solid)
		)
		(layer "F.CrtYd")
		(uuid "e7d51599-7bd0-4889-ad9f-947dac9b7a4f")
	)
	(fp_line
		(start 6.15 7.95)
		(end 6.15 -7.75)
		(stroke
			(width 0.05)
			(type solid)
		)
		(layer "F.CrtYd")
		(uuid "98a63762-5120-4e40-8eb9-1f798a351345")
	)
	(fp_line
		(start -7.75 6.5)
		(end -6.75 6.5)
		(stroke
			(width 0.127)
			(type solid)
		)
		(layer "F.Fab")
		(uuid "f5e77ab2-2fe8-4b0c-b9d5-ff95ee4a30d4")
	)
	(fp_line
		(start -5.5 -7.5)
		(end -5.5 7.5)
		(stroke
			(width 0.127)
			(type solid)
		)
		(layer "F.Fab")
		(uuid "bd0f8df0-1e70-44d4-8b16-c9fa9d83f37e")
	)
	(fp_line
		(start -5.5 7.5)
		(end 5.5 7.5)
		(stroke
			(width 0.127)
			(type solid)
		)
		(layer "F.Fab")
		(uuid "ab471801-b726-495e-8815-f995884cd655")
	)
	(fp_line
		(start 5.5 -7.5)
		(end -5.5 -7.5)
		(stroke
			(width 0.127)
			(type solid)
		)
		(layer "F.Fab")
		(uuid "9800d8c1-b63c-405b-acb2-a3cbb5b7b6ea")
	)
	(fp_line
		(start 5.5 7.5)
		(end 5.5 -7.5)
		(stroke
			(width 0.127)
			(type solid)
		)
		(layer "F.Fab")
		(uuid "775c15dc-98e8-4bc6-ba02-95e65ff0fd7d")
	)
	(fp_line
		(start 6.5 6.5)
		(end 7.5 6.5)
		(stroke
			(width 0.127)
			(type solid)
		)
		(layer "F.Fab")
		(uuid "d74b0365-9c59-43e5-828f-6a6496d46dfe")
	)
	(fp_line
		(start 7 6)
		(end 7 7)
		(stroke
			(width 0.127)
			(type solid)
		)
		(layer "F.Fab")
		(uuid "06f5c2b6-6570-4527-b753-ba3bbc91cc80")
	)
	(pad "N" smd custom
		(at -4.9 6.5)
		(size 0.2 0.2)
		(layers "F.Cu")
		(options
			(clearance outline)
			(anchor rect)
		)
		(primitives
			(gr_poly
				(pts
					(xy -1 -1.2) (xy -1 1.2) (xy 1 1.2) (xy 1 -0.2) (xy 0 -1.2)
				)
				(width 0.01)
				(fill yes)
			)
		)
		(uuid "41708e1b-e77b-44cd-a990-151897e7f158")
	)
	(pad "P" smd custom
		(at 4.9 6.5 180)
		(size 0.2 0.2)
		(layers "F.Cu")
		(options
			(clearance outline)
			(anchor rect)
		)
		(primitives
			(gr_poly
				(pts
					(xy 1 -1.2) (xy 1 1.2) (xy -1 1.2) (xy -1 -0.2) (xy 0 -1.2)
				)
				(width 0.01)
				(fill yes)
			)
		)
		(uuid "1ada7cfe-d298-4b17-aca9-0be5b87d196d")
	)
)
